…
# Converting the table to a data frame
table <- html_table(table, header = TRUE)

bas_rhin <- table %>%
  bind_rows() %>%
  as_tibble()
```

The resulting data frame consists of 514 observations and 10 variables.


```r
## # A tibble: 514 x 10
##    Nom   CodeInsee `Code postal` Arrondissement Canton Intercommunalité
##    <chr> <chr>             <dbl> <chr>          <chr>  <chr>           
##  1 Stra… 67482           6.70e14 Strasbourg     Stras… Eurométropole d…
##  2 Ache… 67001           6.72e 4 Strasbourg     Lingo… Eurométropole d…
##  3 Adam… 67002           6.73e 4 Saverne        Ingwi… CC de l'Alsace …
##  4 Albé  67003           6.72e 4 Sélestat-Erst… Mutzig CC de la Vallée…
##  5 Alte… 67005           6.73e 4 Saverne        Bouxw… CC du Pays de l…
##  6 Alte… 67006           6.75e 4 Saverne        Saver… CC du Pays de S…
##  7 Alto… 67008           6.71e 4 Molsheim       Molsh… CC de la région…
##  8 Altw… 67009           6.73e 4 Saverne        Ingwi… CC de l'Alsace …
##  9 Andl… 67010           6.71e 4 Sélestat-Erst… Obern… CC du Pays de B…
## 10 Arto… 67011           6.74e 4 Sélestat-Erst… Séles… CC de Marckolsh…
## # … with 504 more rows, and 4 more variables: `Superficie(km2)` <chr>,
## #   `Population(dernière pop. légale)` <chr>, `Densité(hab./km2)` <chr>,
## #   Modifier <lgl>
```
…
# Delete last column "Modifier"
bas_rhin <- bas_rhin %>%
  select(-Modifier)

# Remove the line with information on the whole département
bas_rhin <- bas_rhin %>%
  filter(nom != "Bas-Rhin")

```

A glimpse on the clean data set (which can be downloaded [here](/data/bas_rhin.csv)):

```r
## # A tibble: 514 x 11
##    nom   code_postal_1 code_postal_2 code_postal_3 code_insee
##    <chr> <chr>         <chr>         <chr>              <dbl>
##  1 Stra… 67000         67100         67200              67482
##  2 Ache… 67204         ""            ""                 67001
##  3 Adam… 67320         ""            ""                 67002
##  4 Albé  67220         ""            ""                 67003
##  5 Alte… 67270         ""            ""                 67005
##  6 Alte… 67490         ""            ""                 67006
##  7 Alto… 67120         ""            ""                 67008
##  8 Altw… 67260         ""            ""                 67009
##  9 Andl… 67140         ""            ""                 67010
## 10 Arto… 67390         ""            ""                 67011
## # … with 504 more rows, and 6 more variables: arrondissement <chr>,
## #   canton <chr>, intercommunalité <chr>, superficie <dbl>,
## #   population <dbl>, densite <dbl>
```
…
